[
  {
    "interval": "=0.0.1",
    "lowest": "<0.0.0",
    "highest": ">0.0.1"
  },
  {
    "interval": "=0.0.1",
    "lowest": "<0.0.0",
    "highest": ">0.0.2"
  },
  {
    "interval": "=0.0.1",
    "lowest": "<0.0.0",
    "highest": ">2.0.5"
  },
  {
    "interval": "=0.0.10",
    "lowest": "<0.0.1",
    "highest": ">1.0.0-pre2"
  },
  {
    "interval": "=0.0.2",
    "lowest": "<0.0.1",
    "highest": ">0.0.2"
  },
  {
    "interval": "=0.0.2",
    "lowest": "<0.0.1",
    "highest": ">1.0.0"
  },
  {
    "interval": "=0.0.27",
    "lowest": "<0.0.1",
    "highest": ">0.0.33"
  },
  {
    "interval": "=0.0.29",
    "lowest": "<0.0.15-alpha",
    "highest": ">2.2.0"
  },
  {
    "interval": "=0.0.5",
    "lowest": "<0.0.5",
    "highest": ">1.0.0"
  },
  {
    "interval": "=0.1.0",
    "lowest": "<0.0.0",
    "highest": ">1.0.0"
  },
  {
    "interval": "=0.1.0",
    "lowest": "<0.0.1",
    "highest": ">0.1.0"
  },
  {
    "interval": "=0.1.0",
    "lowest": "<0.1.0",
    "highest": ">0.1.0"
  },
  {
    "interval": "=0.1.0",
    "lowest": "<0.1.0",
    "highest": ">1.0.0"
  },
  {
    "interval": "=0.1.0",
    "lowest": "<0.1.0",
    "highest": ">3.0.0"
  },
  {
    "interval": "=0.1.1",
    "lowest": "<0.0.1",
    "highest": ">0.1.1"
  },
  {
    "interval": "=0.1.1",
    "lowest": "<0.1.0",
    "highest": ">0.1.1"
  },
  {
    "interval": "=0.1.1",
    "lowest": "<0.1.0",
    "highest": ">1.0.0"
  },
  {
    "interval": "=0.1.1",
    "lowest": "<0.1.0",
    "highest": ">1.0.1"
  },
  {
    "interval": "=0.1.1",
    "lowest": "<0.1.0",
    "highest": ">2.0.0"
  },
  {
    "interval": "=0.1.15",
    "lowest": "<0.1.0",
    "highest": ">0.5.0"
  },
  {
    "interval": "=0.1.2",
    "lowest": "<0.0.1",
    "highest": ">1.1.0"
  },
  {
    "interval": "=0.1.2",
    "lowest": "<0.1.0",
    "highest": ">0.1.2"
  },
  {
    "interval": "=0.1.3",
    "lowest": "<0.1.0",
    "highest": ">0.1.3"
  },
  {
    "interval": "=0.1.3",
    "lowest": "<0.1.0",
    "highest": ">1.0.1"
  },
  {
    "interval": "=0.1.32",
    "lowest": "<0.1.1",
    "highest": ">0.4.2"
  },
  {
    "interval": "=0.1.4",
    "lowest": "<0.0.1",
    "highest": ">0.1.4"
  },
  {
    "interval": "=0.1.4",
    "lowest": "<0.1.0",
    "highest": ">0.1.4"
  },
  {
    "interval": "=0.1.4",
    "lowest": "<0.1.0",
    "highest": ">1.0.2"
  },
  {
    "interval": "=0.1.4",
    "lowest": "<0.1.0",
    "highest": ">1.1.1"
  },
  {
    "interval": "=0.1.4",
    "lowest": "<0.1.1",
    "highest": ">2.0.1"
  },
  {
    "interval": "=0.1.5",
    "lowest": "<0.1.0",
    "highest": ">1.0.0"
  },
  {
    "interval": "=0.1.5",
    "lowest": "<0.1.0",
    "highest": ">4.0.0"
  },
  {
    "interval": "=0.1.5",
    "lowest": "<0.1.1",
    "highest": ">0.1.5"
  },
  {
    "interval": "=0.1.6-no-external-plugins",
    "lowest": "<0.0.1",
    "highest": ">0.1.6"
  },
  {
    "interval": "=0.1.7",
    "lowest": "<0.1.0",
    "highest": ">3.1.1"
  },
  {
    "interval": "=0.1.8",
    "lowest": "<0.0.1",
    "highest": ">0.1.8"
  },
  {
    "interval": "=0.1.8",
    "lowest": "<0.1.0",
    "highest": ">0.1.8"
  },
  {
    "interval": "=0.10.3",
    "lowest": "<0.4.9",
    "highest": ">0.11.3"
  },
  {
    "interval": "=0.10.31",
    "lowest": "<0.0.0",
    "highest": ">1.3.0"
  },
  {
    "interval": "=0.10.33",
    "lowest": "<0.1.0",
    "highest": ">0.23.4"
  },
  {
    "interval": "=0.10.8",
    "lowest": "<0.5.1",
    "highest": ">0.10.8"
  },
  {
    "interval": "=0.11.0",
    "lowest": "<0.1.0",
    "highest": ">0.11.0"
  },
  {
    "interval": "=0.11.13",
    "lowest": "<0.1.0",
    "highest": ">0.11.13"
  },
  {
    "interval": "=0.11.2",
    "lowest": "<0.0.1-dev",
    "highest": ">3.0.0"
  },
  {
    "interval": "=0.11.2",
    "lowest": "<0.3.1",
    "highest": ">0.11.2"
  },
  {
    "interval": "=0.11.23",
    "lowest": "<0.1.0",
    "highest": ">0.23.4"
  },
  {
    "interval": "=0.11.4",
    "lowest": "<0.1.0",
    "highest": ">9.2.12"
  },
  {
    "interval": "=0.12.5",
    "lowest": "<0.4.9",
    "highest": ">0.12.5"
  },
  {
    "interval": "=0.13.1",
    "lowest": "<0.1.0",
    "highest": ">1.0.1"
  },
  {
    "interval": "=0.14.1",
    "lowest": "<0.9.0",
    "highest": ">0.14.0"
  },
  {
    "interval": "=0.16.0",
    "lowest": "<0.0.1",
    "highest": ">0.16.0"
  },
  {
    "interval": "=0.17.5",
    "lowest": "<0.3.3",
    "highest": ">0.18.5"
  },
  {
    "interval": "=0.18.5",
    "lowest": "<0.3.3",
    "highest": ">0.18.5"
  },
  {
    "interval": "=0.19.3",
    "lowest": "<0.3.3",
    "highest": ">0.18.5"
  },
  {
    "interval": "=0.2.0",
    "lowest": "<0.0.0",
    "highest": ">0.2.0"
  },
  {
    "interval": "=0.2.0",
    "lowest": "<0.0.1",
    "highest": ">0.2.0"
  },
  {
    "interval": "=0.2.0",
    "lowest": "<0.0.4",
    "highest": ">0.2.1"
  },
  {
    "interval": "=0.2.0",
    "lowest": "<0.1.0",
    "highest": ">0.2.0"
  },
  {
    "interval": "=0.2.0",
    "lowest": "<0.1.0",
    "highest": ">0.8.0"
  },
  {
    "interval": "=0.2.1",
    "lowest": "<0.1.0",
    "highest": ">0.2.1"
  },
  {
    "interval": "=0.2.1",
    "lowest": "<0.1.0",
    "highest": ">0.3.2"
  },
  {
    "interval": "=0.2.1",
    "lowest": "<0.1.1",
    "highest": ">0.3.2"
  },
  {
    "interval": "=0.2.10",
    "lowest": "<0.1.0",
    "highest": ">0.5.21"
  },
  {
    "interval": "=0.2.2",
    "lowest": "<0.1.0",
    "highest": ">0.2.2"
  },
  {
    "interval": "=0.2.2",
    "lowest": "<0.1.0",
    "highest": ">0.4.1"
  },
  {
    "interval": "=0.2.3",
    "lowest": "<0.1.0",
    "highest": ">0.2.3"
  },
  {
    "interval": "=0.2.5",
    "lowest": "<0.1.0",
    "highest": ">2.0.2"
  },
  {
    "interval": "=0.2.6",
    "lowest": "<0.1.1",
    "highest": ">0.2.6"
  },
  {
    "interval": "=0.20.2",
    "lowest": "<0.1.0",
    "highest": ">4.8.3"
  },
  {
    "interval": "=0.21.3",
    "lowest": "<0.1.0",
    "highest": ">4.8.3"
  },
  {
    "interval": "=0.23.0",
    "lowest": "<0.5.0",
    "highest": ">0.23.0"
  },
  {
    "interval": "=0.27.8",
    "lowest": "<0.8.0",
    "highest": ">0.32.0-dev-9"
  },
  {
    "interval": "=0.3.0",
    "lowest": "<0.0.1",
    "highest": ">0.3.0"
  },
  {
    "interval": "=0.3.0",
    "lowest": "<0.0.1",
    "highest": ">0.4.0"
  },
  {
    "interval": "=0.3.0",
    "lowest": "<0.1.0",
    "highest": ">0.3.0"
  },
  {
    "interval": "=0.3.1",
    "lowest": "<0.1.0",
    "highest": ">2.0.2"
  },
  {
    "interval": "=0.3.2",
    "lowest": "<0.1.0",
    "highest": ">0.3.2"
  },
  {
    "interval": "=0.3.2",
    "lowest": "<0.1.0",
    "highest": ">3.0.0"
  },
  {
    "interval": "=0.3.2",
    "lowest": "<0.1.1",
    "highest": ">0.3.2"
  },
  {
    "interval": "=0.3.20",
    "lowest": "<0.0.1",
    "highest": ">0.3.20"
  },
  {
    "interval": "=0.3.3",
    "lowest": "<0.1.0",
    "highest": ">0.3.3"
  },
  {
    "interval": "=0.3.6",
    "lowest": "<0.1.0",
    "highest": ">0.3.6"
  },
  {
    "interval": "=0.3.9",
    "lowest": "<0.0.1",
    "highest": ">0.3.20"
  },
  {
    "interval": "=0.3.9",
    "lowest": "<0.1.0",
    "highest": ">0.3.9"
  },
  {
    "interval": "=0.3.9",
    "lowest": "<0.1.2",
    "highest": ">0.6.7"
  },
  {
    "interval": "=0.38.3",
    "lowest": "<0.0.1",
    "highest": ">0.39.6"
  },
  {
    "interval": "=0.4.0",
    "lowest": "<0.0.0",
    "highest": ">2.2.3"
  },
  {
    "interval": "=0.4.0",
    "lowest": "<0.1.0",
    "highest": ">0.4.0"
  },
  {
    "interval": "=0.4.1",
    "lowest": "<0.0.1",
    "highest": ">1.0.0"
  },
  {
    "interval": "=0.4.1",
    "lowest": "<0.1.0",
    "highest": ">0.4.1"
  },
  {
    "interval": "=0.4.14",
    "lowest": "<0.0.14-alpha",
    "highest": ">0.4.14"
  },
  {
    "interval": "=0.4.24",
    "lowest": "<0.1.0",
    "highest": ">0.6.3"
  },
  {
    "interval": "=0.4.4",
    "lowest": "<0.0.1",
    "highest": ">0.4.3"
  },
  {
    "interval": "=0.4.4",
    "lowest": "<0.1.0",
    "highest": ">0.4.4"
  },
  {
    "interval": "=0.4.7",
    "lowest": "<0.0.0",
    "highest": ">0.4.6"
  },
  {
    "interval": "=0.5.0",
    "lowest": "<0.1.0",
    "highest": ">0.6.2"
  },
  {
    "interval": "=0.5.0",
    "lowest": "<0.3.0",
    "highest": ">3.0.2"
  },
  {
    "interval": "=0.5.0",
    "lowest": "<0.5.0",
    "highest": ">7.0.0"
  },
  {
    "interval": "=0.5.13",
    "lowest": "<0.1.0",
    "highest": ">0.5.21"
  },
  {
    "interval": "=0.5.3",
    "lowest": "<0.1.0",
    "highest": ">0.6.0"
  },
  {
    "interval": "=0.5.4",
    "lowest": "<0.0.0",
    "highest": ">0.5.3"
  },
  {
    "interval": "=0.5.43",
    "lowest": "<0.0.1",
    "highest": ">0.5.43"
  },
  {
    "interval": "=0.5.6",
    "lowest": "<0.0.1",
    "highest": ">3.0.1"
  },
  {
    "interval": "=0.6.0",
    "lowest": "<0.2.0",
    "highest": ">0.6.0"
  },
  {
    "interval": "=0.6.2",
    "lowest": "<0.1.0",
    "highest": ">0.6.2"
  },
  {
    "interval": "=0.6.8",
    "lowest": "<0.1.2",
    "highest": ">0.6.7"
  },
  {
    "interval": "=0.7.2",
    "lowest": "<0.7.1",
    "highest": ">0.7.2"
  },
  {
    "interval": "=0.8.0",
    "lowest": "<0.8.0",
    "highest": ">0.8.0"
  },
  {
    "interval": "=0.8.1",
    "lowest": "<0.6.0-0",
    "highest": ">0.8.1"
  },
  {
    "interval": "=0.8.12",
    "lowest": "<0.1.1",
    "highest": ">0.16.1"
  },
  {
    "interval": "=0.8.14",
    "lowest": "<0.1.11",
    "highest": ">0.10.14"
  },
  {
    "interval": "=0.8.2",
    "lowest": "<0.1.0",
    "highest": ">0.12.1"
  },
  {
    "interval": "=0.8.40",
    "lowest": "<0.1.0",
    "highest": ">0.12.1"
  },
  {
    "interval": "=0.8.7",
    "lowest": "<0.0.0",
    "highest": ">0.8.6"
  },
  {
    "interval": "=0.9.1",
    "lowest": "<0.2.1",
    "highest": ">0.10.0"
  },
  {
    "interval": "=0.9.3",
    "lowest": "<0.1.0",
    "highest": ">0.9.3"
  },
  {
    "interval": "=0.9.6",
    "lowest": "<0.1.1",
    "highest": ">0.16.1"
  },
  {
    "interval": "=1.0.0",
    "lowest": "<0.0.0",
    "highest": ">1.0.0"
  },
  {
    "interval": "=1.0.0",
    "lowest": "<0.0.0",
    "highest": ">2.0.5"
  },
  {
    "interval": "=1.0.0",
    "lowest": "<0.0.1",
    "highest": ">2.0.0"
  },
  {
    "interval": "=1.0.0",
    "lowest": "<0.1.0",
    "highest": ">1.0.0"
  },
  {
    "interval": "=1.0.0",
    "lowest": "<0.1.0",
    "highest": ">2.0.1"
  },
  {
    "interval": "=1.0.0",
    "lowest": "<0.1.0",
    "highest": ">2.0.2"
  },
  {
    "interval": "=1.0.0",
    "lowest": "<0.1.0",
    "highest": ">4.2.0"
  },
  {
    "interval": "=1.0.0",
    "lowest": "<0.1.0",
    "highest": ">5.1.0"
  },
  {
    "interval": "=1.0.0",
    "lowest": "<0.1.1",
    "highest": ">2.0.1"
  },
  {
    "interval": "=1.0.0",
    "lowest": "<1.0.0",
    "highest": ">1.0.0"
  },
  {
    "interval": "=1.0.0",
    "lowest": "<1.0.0",
    "highest": ">2.0.0"
  },
  {
    "interval": "=1.0.0",
    "lowest": "<1.0.0",
    "highest": ">2.1.1"
  },
  {
    "interval": "=1.0.0",
    "lowest": "<1.0.0",
    "highest": ">4.0.0"
  },
  {
    "interval": "=1.0.0",
    "lowest": "<1.0.0",
    "highest": ">4.0.1"
  },
  {
    "interval": "=1.0.0",
    "lowest": "<1.0.0",
    "highest": ">5.0.0"
  },
  {
    "interval": "=1.0.0",
    "lowest": "<1.0.0",
    "highest": ">6.0.0"
  },
  {
    "interval": "=1.0.0-beta.2",
    "lowest": "<1.0.0-beta.0",
    "highest": ">1.0.0-beta.2"
  },
  {
    "interval": "=1.0.1",
    "lowest": "<0.0.0",
    "highest": ">1.0.1"
  },
  {
    "interval": "=1.0.1",
    "lowest": "<0.0.1",
    "highest": ">1.0.1"
  },
  {
    "interval": "=1.0.1",
    "lowest": "<0.0.2",
    "highest": ">1.0.1"
  },
  {
    "interval": "=1.0.1",
    "lowest": "<0.1.0",
    "highest": ">1.0.1"
  },
  {
    "interval": "=1.0.1",
    "lowest": "<0.1.0",
    "highest": ">2.0.1"
  },
  {
    "interval": "=1.0.1",
    "lowest": "<0.1.0",
    "highest": ">2.1.3"
  },
  {
    "interval": "=1.0.1",
    "lowest": "<0.1.0",
    "highest": ">3.0.5"
  },
  {
    "interval": "=1.0.1",
    "lowest": "<0.1.0",
    "highest": ">3.1.0"
  },
  {
    "interval": "=1.0.1",
    "lowest": "<0.1.0",
    "highest": ">4.0.2"
  },
  {
    "interval": "=1.0.1",
    "lowest": "<0.1.0",
    "highest": ">6.0.0"
  },
  {
    "interval": "=1.0.1",
    "lowest": "<0.1.0",
    "highest": ">7.0.0"
  },
  {
    "interval": "=1.0.1",
    "lowest": "<0.1.0",
    "highest": ">8.0.2"
  },
  {
    "interval": "=1.0.1",
    "lowest": "<1.0.0",
    "highest": ">1.0.1"
  },
  {
    "interval": "=1.0.1",
    "lowest": "<1.0.0",
    "highest": ">2.0.0"
  },
  {
    "interval": "=1.0.1",
    "lowest": "<1.0.0",
    "highest": ">2.1.0"
  },
  {
    "interval": "=1.0.1",
    "lowest": "<1.0.0",
    "highest": ">3.0.0"
  },
  {
    "interval": "=1.0.1",
    "lowest": "<1.0.0",
    "highest": ">5.0.0"
  },
  {
    "interval": "=1.0.1",
    "lowest": "<1.0.1",
    "highest": ">1.0.1"
  },
  {
    "interval": "=1.0.10",
    "lowest": "<0.0.0",
    "highest": ">1.0.10"
  },
  {
    "interval": "=1.0.10",
    "lowest": "<0.1.0",
    "highest": ">1.0.10"
  },
  {
    "interval": "=1.0.11",
    "lowest": "<0.0.0",
    "highest": ">2.0.0-next.fb6e6f70"
  },
  {
    "interval": "=1.0.11",
    "lowest": "<1.0.0",
    "highest": ">12.1.0"
  },
  {
    "interval": "=1.0.12",
    "lowest": "<0.0.0",
    "highest": ">1.0.12"
  },
  {
    "interval": "=1.0.12",
    "lowest": "<1.0.0",
    "highest": ">1.0.12"
  },
  {
    "interval": "=1.0.13",
    "lowest": "<1.0.0",
    "highest": ">1.0.13"
  },
  {
    "interval": "=1.0.2",
    "lowest": "<0.0.0",
    "highest": ">1.0.2"
  },
  {
    "interval": "=1.0.2",
    "lowest": "<0.0.0",
    "highest": ">2.2.3"
  },
  {
    "interval": "=1.0.2",
    "lowest": "<0.0.0",
    "highest": ">3.0.1"
  },
  {
    "interval": "=1.0.2",
    "lowest": "<0.0.1",
    "highest": ">2.1.1"
  },
  {
    "interval": "=1.0.2",
    "lowest": "<0.1.0",
    "highest": ">1.0.2"
  },
  {
    "interval": "=1.0.2",
    "lowest": "<0.1.0",
    "highest": ">2.0.0"
  },
  {
    "interval": "=1.0.2",
    "lowest": "<1.0.0",
    "highest": ">1.0.2"
  },
  {
    "interval": "=1.0.2",
    "lowest": "<1.0.0",
    "highest": ">2.0.0"
  },
  {
    "interval": "=1.0.2",
    "lowest": "<1.0.0",
    "highest": ">2.0.1"
  },
  {
    "interval": "=1.0.2",
    "lowest": "<1.0.0",
    "highest": ">4.0.0"
  },
  {
    "interval": "=1.0.2",
    "lowest": "<1.0.0",
    "highest": ">6.0.0"
  },
  {
    "interval": "=1.0.2",
    "lowest": "<1.0.0",
    "highest": ">7.0.0"
  },
  {
    "interval": "=1.0.2",
    "lowest": "<1.0.1",
    "highest": ">1.0.2"
  },
  {
    "interval": "=1.0.2",
    "lowest": "<1.0.1",
    "highest": ">6.22.0"
  },
  {
    "interval": "=1.0.3",
    "lowest": "<0.0.18",
    "highest": ">1.0.3"
  },
  {
    "interval": "=1.0.3",
    "lowest": "<0.1.0",
    "highest": ">2.0.0"
  },
  {
    "interval": "=1.0.3",
    "lowest": "<0.1.0",
    "highest": ">3.1.1"
  },
  {
    "interval": "=1.0.3",
    "lowest": "<1.0.0",
    "highest": ">1.0.3"
  },
  {
    "interval": "=1.0.3",
    "lowest": "<1.0.0",
    "highest": ">14.1.0"
  },
  {
    "interval": "=1.0.3",
    "lowest": "<1.0.0",
    "highest": ">4.0.0"
  },
  {
    "interval": "=1.0.3",
    "lowest": "<1.0.1",
    "highest": ">1.0.3"
  },
  {
    "interval": "=1.0.3",
    "lowest": "<1.0.1",
    "highest": ">1.1.3"
  },
  {
    "interval": "=1.0.3",
    "lowest": "<1.0.1",
    "highest": ">2.0.0"
  },
  {
    "interval": "=1.0.30001572",
    "lowest": "<0.1.0",
    "highest": ">1.0.30001566"
  },
  {
    "interval": "=1.0.4",
    "lowest": "<0.0.1",
    "highest": ">3.0.1"
  },
  {
    "interval": "=1.0.4",
    "lowest": "<0.1.0",
    "highest": ">2.0.2"
  },
  {
    "interval": "=1.0.4",
    "lowest": "<1.0.0",
    "highest": ">1.0.4"
  },
  {
    "interval": "=1.0.4",
    "lowest": "<1.0.0",
    "highest": ">16.1.1"
  },
  {
    "interval": "=1.0.4",
    "lowest": "<1.0.0",
    "highest": ">4.0.0"
  },
  {
    "interval": "=1.0.4",
    "lowest": "<1.0.1",
    "highest": ">1.0.4"
  },
  {
    "interval": "=1.0.5",
    "lowest": "<0.1.0",
    "highest": ">1.0.5"
  },
  {
    "interval": "=1.0.5",
    "lowest": "<1.0.0",
    "highest": ">1.0.5"
  },
  {
    "interval": "=1.0.5",
    "lowest": "<1.0.0",
    "highest": ">5.0.0"
  },
  {
    "interval": "=1.0.5",
    "lowest": "<1.0.1",
    "highest": ">1.0.5"
  },
  {
    "interval": "=1.0.6",
    "lowest": "<0.1.0",
    "highest": ">1.0.6"
  },
  {
    "interval": "=1.0.6",
    "lowest": "<1.0.0",
    "highest": ">1.0.6"
  },
  {
    "interval": "=1.0.7",
    "lowest": "<0.0.1",
    "highest": ">1.0.7"
  },
  {
    "interval": "=1.0.7",
    "lowest": "<1.0.0",
    "highest": ">1.0.7"
  },
  {
    "interval": "=1.0.7",
    "lowest": "<1.0.0",
    "highest": ">2.0.1"
  },
  {
    "interval": "=1.0.7",
    "lowest": "<1.0.1",
    "highest": ">1.0.7"
  },
  {
    "interval": "=1.0.8",
    "lowest": "<0.0.0",
    "highest": ">1.0.8"
  },
  {
    "interval": "=1.0.8",
    "lowest": "<0.0.1",
    "highest": ">1.0.8"
  },
  {
    "interval": "=1.0.9",
    "lowest": "<1.0.0",
    "highest": ">1.0.9"
  },
  {
    "interval": "=1.1.0",
    "lowest": "<0.0.0",
    "highest": ">2.1.1"
  },
  {
    "interval": "=1.1.0",
    "lowest": "<0.0.1",
    "highest": ">1.1.0"
  },
  {
    "interval": "=1.1.0",
    "lowest": "<0.1.0",
    "highest": ">1.1.0"
  },
  {
    "interval": "=1.1.0",
    "lowest": "<0.1.0",
    "highest": ">7.0.0"
  },
  {
    "interval": "=1.1.0",
    "lowest": "<1.0.0",
    "highest": ">1.1.0"
  },
  {
    "interval": "=1.1.0",
    "lowest": "<1.0.0",
    "highest": ">2.0.0"
  },
  {
    "interval": "=1.1.0",
    "lowest": "<1.0.0",
    "highest": ">3.0.0"
  },
  {
    "interval": "=1.1.0",
    "lowest": "<1.0.0-alpha.0",
    "highest": ">1.1.0"
  },
  {
    "interval": "=1.1.1",
    "lowest": "<0.0.0",
    "highest": ">1.1.1"
  },
  {
    "interval": "=1.1.1",
    "lowest": "<0.0.0",
    "highest": ">1.3.0"
  },
  {
    "interval": "=1.1.1",
    "lowest": "<0.0.1",
    "highest": ">1.1.1"
  },
  {
    "interval": "=1.1.1",
    "lowest": "<0.1.0",
    "highest": ">1.1.1"
  },
  {
    "interval": "=1.1.1",
    "lowest": "<0.1.0",
    "highest": ">3.3.0"
  },
  {
    "interval": "=1.1.1",
    "lowest": "<1.0.0",
    "highest": ">1.1.1"
  },
  {
    "interval": "=1.1.1",
    "lowest": "<1.0.0",
    "highest": ">3.0.0"
  },
  {
    "interval": "=1.1.1",
    "lowest": "<1.0.0",
    "highest": ">4.0.0"
  },
  {
    "interval": "=1.1.1",
    "lowest": "<1.0.0",
    "highest": ">4.1.0"
  },
  {
    "interval": "=1.1.11",
    "lowest": "<0.0.0",
    "highest": ">3.0.0"
  },
  {
    "interval": "=1.1.12",
    "lowest": "<1.0.1",
    "highest": ">1.1.12"
  },
  {
    "interval": "=1.1.13",
    "lowest": "<1.0.0",
    "highest": ">1.1.13"
  },
  {
    "interval": "=1.1.2",
    "lowest": "<0.1.0",
    "highest": ">1.1.2"
  },
  {
    "interval": "=1.1.2",
    "lowest": "<0.1.0",
    "highest": ">1.3.1"
  },
  {
    "interval": "=1.1.2",
    "lowest": "<0.2.1",
    "highest": ">1.1.2"
  },
  {
    "interval": "=1.1.2",
    "lowest": "<1.0.0",
    "highest": ">1.1.2"
  },
  {
    "interval": "=1.1.2",
    "lowest": "<1.0.0",
    "highest": ">2.0.0"
  },
  {
    "interval": "=1.1.3",
    "lowest": "<0.1.0",
    "highest": ">5.3.0"
  },
  {
    "interval": "=1.1.3",
    "lowest": "<1.0.0",
    "highest": ">2.0.1"
  },
  {
    "interval": "=1.1.3",
    "lowest": "<1.0.0",
    "highest": ">4.0.0"
  },
  {
    "interval": "=1.1.3",
    "lowest": "<1.1.0",
    "highest": ">2.0.0"
  },
  {
    "interval": "=1.1.4",
    "lowest": "<0.0.0",
    "highest": ">1.1.4"
  },
  {
    "interval": "=1.1.4",
    "lowest": "<1.0.0",
    "highest": ">1.1.4"
  },
  {
    "interval": "=1.1.4",
    "lowest": "<1.1.0",
    "highest": ">2.0.0"
  },
  {
    "interval": "=1.1.6",
    "lowest": "<1.0.0",
    "highest": ">1.1.6"
  },
  {
    "interval": "=1.1.6",
    "lowest": "<1.0.0",
    "highest": ">2.0.5"
  },
  {
    "interval": "=1.1.6",
    "lowest": "<1.0.2",
    "highest": ">1.1.6"
  },
  {
    "interval": "=1.1.7",
    "lowest": "<1.0.0",
    "highest": ">1.1.7"
  },
  {
    "interval": "=1.10.1",
    "lowest": "<0.0.0-0",
    "highest": ">1.10.1"
  },
  {
    "interval": "=1.13.1",
    "lowest": "<0.0.0",
    "highest": ">1.13.1"
  },
  {
    "interval": "=1.13.1",
    "lowest": "<1.0.0",
    "highest": ">2.2.0"
  },
  {
    "interval": "=1.14.1",
    "lowest": "<1.11.2",
    "highest": ">2.6.2"
  },
  {
    "interval": "=1.15.0",
    "lowest": "<0.5.3",
    "highest": ">1.15.0"
  },
  {
    "interval": "=1.15.3",
    "lowest": "<0.0.4",
    "highest": ">1.15.3"
  },
  {
    "interval": "=1.16.0",
    "lowest": "<1.0.1",
    "highest": ">1.15.0"
  },
  {
    "interval": "=1.2.0",
    "lowest": "<0.0.0",
    "highest": ">1.2.0"
  },
  {
    "interval": "=1.2.0",
    "lowest": "<0.1.0",
    "highest": ">1.2.0"
  },
  {
    "interval": "=1.2.0",
    "lowest": "<0.1.0",
    "highest": ">1.3.1"
  },
  {
    "interval": "=1.2.0",
    "lowest": "<0.1.0",
    "highest": ">8.1.1"
  },
  {
    "interval": "=1.2.0",
    "lowest": "<1.0.0",
    "highest": ">6.0.0"
  },
  {
    "interval": "=1.2.1",
    "lowest": "<0.2.0",
    "highest": ">1.2.1"
  },
  {
    "interval": "=1.2.1",
    "lowest": "<1.0.0",
    "highest": ">1.0.5"
  },
  {
    "interval": "=1.2.1",
    "lowest": "<1.0.0",
    "highest": ">1.2.0"
  },
  {
    "interval": "=1.2.1",
    "lowest": "<1.0.0",
    "highest": ">1.2.1"
  },
  {
    "interval": "=1.2.1",
    "lowest": "<1.0.0",
    "highest": ">8.0.0"
  },
  {
    "interval": "=1.2.13",
    "lowest": "<0.1.0",
    "highest": ">1.2.13"
  },
  {
    "interval": "=1.2.13",
    "lowest": "<0.1.1",
    "highest": ">2.3.3"
  },
  {
    "interval": "=1.2.2",
    "lowest": "<0.1.0",
    "highest": ">1.2.2"
  },
  {
    "interval": "=1.2.2",
    "lowest": "<0.8.1",
    "highest": ">1.2.2"
  },
  {
    "interval": "=1.2.2",
    "lowest": "<1.0.0",
    "highest": ">1.2.2"
  },
  {
    "interval": "=1.2.3",
    "lowest": "<0.0.0",
    "highest": ">1.2.3"
  },
  {
    "interval": "=1.2.3",
    "lowest": "<0.1.0",
    "highest": ">1.2.3"
  },
  {
    "interval": "=1.2.3",
    "lowest": "<1.0.0",
    "highest": ">1.2.3"
  },
  {
    "interval": "=1.2.4",
    "lowest": "<1.0.0",
    "highest": ">2.0.4"
  },
  {
    "interval": "=1.2.6",
    "lowest": "<1.2.4",
    "highest": ">1.2.6"
  },
  {
    "interval": "=1.2.7",
    "lowest": "<0.0.3",
    "highest": ">3.34.0"
  },
  {
    "interval": "=1.2.7",
    "lowest": "<1.0.0",
    "highest": ">1.2.7"
  },
  {
    "interval": "=1.2.8",
    "lowest": "<0.0.0",
    "highest": ">1.2.8"
  },
  {
    "interval": "=1.2.8",
    "lowest": "<1.0.0",
    "highest": ">1.2.8"
  },
  {
    "interval": "=1.2.8",
    "lowest": "<1.0.0",
    "highest": ">2.0.0"
  },
  {
    "interval": "=1.2.8",
    "lowest": "<1.0.2",
    "highest": ">1.2.8"
  },
  {
    "interval": "=1.22.3",
    "lowest": "<1.0.0",
    "highest": ">1.22.3"
  },
  {
    "interval": "=1.22.8",
    "lowest": "<0.0.0",
    "highest": ">2.0.0-next.5"
  },
  {
    "interval": "=1.3.0",
    "lowest": "<0.1.0",
    "highest": ">4.8.0"
  },
  {
    "interval": "=1.3.0",
    "lowest": "<0.1.1",
    "highest": ">1.3.0"
  },
  {
    "interval": "=1.3.1",
    "lowest": "<0.1.0",
    "highest": ">1.3.1"
  },
  {
    "interval": "=1.3.1",
    "lowest": "<1.1.2",
    "highest": ">2.0.0"
  },
  {
    "interval": "=1.3.2",
    "lowest": "<0.0.1",
    "highest": ">2.3.1"
  },
  {
    "interval": "=1.3.2",
    "lowest": "<0.1.0",
    "highest": ">1.3.2"
  },
  {
    "interval": "=1.3.2",
    "lowest": "<0.1.0",
    "highest": ">2.0.1"
  },
  {
    "interval": "=1.3.2",
    "lowest": "<1.0.0",
    "highest": ">1.3.2"
  },
  {
    "interval": "=1.3.2",
    "lowest": "<1.0.0",
    "highest": ">3.1.3"
  },
  {
    "interval": "=1.3.2",
    "lowest": "<1.2.1",
    "highest": ">1.3.2"
  },
  {
    "interval": "=1.3.4",
    "lowest": "<1.0.0",
    "highest": ">5.0.1"
  },
  {
    "interval": "=1.3.5",
    "lowest": "<1.3.0",
    "highest": ">1.3.5"
  },
  {
    "interval": "=1.3.6",
    "lowest": "<0.0.0",
    "highest": ">1.3.6"
  },
  {
    "interval": "=1.3.8",
    "lowest": "<1.0.0",
    "highest": ">4.1.1"
  },
  {
    "interval": "=1.4.0",
    "lowest": "<1.0.0",
    "highest": ">1.4.0"
  },
  {
    "interval": "=1.4.0",
    "lowest": "<1.0.0",
    "highest": ">6.0.2"
  },
  {
    "interval": "=1.4.0",
    "lowest": "<1.0.0",
    "highest": ">6.2.0"
  },
  {
    "interval": "=1.4.0",
    "lowest": "<1.1.0",
    "highest": ">6.0.0"
  },
  {
    "interval": "=1.4.0",
    "lowest": "<1.2.2",
    "highest": ">1.4.0"
  },
  {
    "interval": "=1.4.1",
    "lowest": "<0.2.0",
    "highest": ">1.4.1"
  },
  {
    "interval": "=1.4.1",
    "lowest": "<1.0.0",
    "highest": ">1.4.1"
  },
  {
    "interval": "=1.4.15",
    "lowest": "<1.4.9",
    "highest": ">1.4.15"
  },
  {
    "interval": "=1.4.2",
    "lowest": "<0.5.4",
    "highest": ">1.4.2"
  },
  {
    "interval": "=1.4.4",
    "lowest": "<0.1.0",
    "highest": ">1.4.4"
  },
  {
    "interval": "=1.4.616",
    "lowest": "<1.0.0",
    "highest": ">1.4.605"
  },
  {
    "interval": "=1.5.0",
    "lowest": "<0.0.1",
    "highest": ">1.5.0"
  },
  {
    "interval": "=1.5.0",
    "lowest": "<1.0.1",
    "highest": ">1.5.0"
  },
  {
    "interval": "=1.5.1",
    "lowest": "<0.0.0",
    "highest": ">2.0.3"
  },
  {
    "interval": "=1.5.1",
    "lowest": "<0.0.1",
    "highest": ">1.5.1"
  },
  {
    "interval": "=1.5.1",
    "lowest": "<0.1.0",
    "highest": ">1.5.1"
  },
  {
    "interval": "=1.5.1",
    "lowest": "<1.0.0",
    "highest": ">1.5.1"
  },
  {
    "interval": "=1.52.0",
    "lowest": "<0.0.0",
    "highest": ">1.52.0"
  },
  {
    "interval": "=1.6.0",
    "lowest": "<1.4.0",
    "highest": ">1.6.0"
  },
  {
    "interval": "=1.6.1",
    "lowest": "<0.1.0",
    "highest": ">1.6.1"
  },
  {
    "interval": "=1.6.1",
    "lowest": "<1.0.0",
    "highest": ">2.0.4"
  },
  {
    "interval": "=1.6.3",
    "lowest": "<0.1.0",
    "highest": ">1.6.2"
  },
  {
    "interval": "=1.6.52",
    "lowest": "<1.6.0",
    "highest": ">1.6.52"
  },
  {
    "interval": "=1.7.0",
    "lowest": "<0.1.1",
    "highest": ">3.5.3"
  },
  {
    "interval": "=1.7.0",
    "lowest": "<1.0.0",
    "highest": ">6.0.1"
  },
  {
    "interval": "=1.7.1",
    "lowest": "<0.0.1",
    "highest": ">1.7.1"
  },
  {
    "interval": "=1.8.0",
    "lowest": "<0.0.1",
    "highest": ">6.2.1"
  },
  {
    "interval": "=1.8.2",
    "lowest": "<0.1.0",
    "highest": ">2.0.2"
  },
  {
    "interval": "=1.8.5",
    "lowest": "<0.1.0",
    "highest": ">3.0.2"
  },
  {
    "interval": "=1.8.6",
    "lowest": "<1.0.0",
    "highest": ">3.0.0"
  },
  {
    "interval": "=1.9.0",
    "lowest": "<0.1.0",
    "highest": ">2.0.0"
  },
  {
    "interval": "=1.9.1",
    "lowest": "<0.1.0",
    "highest": ">1.9.1"
  },
  {
    "interval": "=1.9.3",
    "lowest": "<0.1.0",
    "highest": ">2.0.1"
  },
  {
    "interval": "=10.0.20",
    "lowest": "<1.16.13-alpha",
    "highest": ">17.0.2"
  },
  {
    "interval": "=10.1.0",
    "lowest": "<1.0.1",
    "highest": ">10.0.3"
  },
  {
    "interval": "=10.1.1",
    "lowest": "<1.0.0",
    "highest": ">10.1.1"
  },
  {
    "interval": "=10.3.0",
    "lowest": "<6.0.0",
    "highest": ">11.2.2"
  },
  {
    "interval": "=10.3.10",
    "lowest": "<1.1.0",
    "highest": ">10.3.10"
  },
  {
    "interval": "=10.9.2",
    "lowest": "<0.2.0",
    "highest": ">11.0.0-beta.1"
  },
  {
    "interval": "=11.0.1",
    "lowest": "<0.0.1",
    "highest": ">15.1.1"
  },
  {
    "interval": "=11.1.0",
    "lowest": "<0.1.0",
    "highest": ">14.0.0"
  },
  {
    "interval": "=11.12.0",
    "lowest": "<0.1.0",
    "highest": ">13.23.0"
  },
  {
    "interval": "=13.24.0",
    "lowest": "<0.1.0",
    "highest": ">13.23.0"
  },
  {
    "interval": "=14.0.2",
    "lowest": "<1.15.0",
    "highest": ">17.0.1"
  },
  {
    "interval": "=15.0.0",
    "lowest": "<0.0.1",
    "highest": ">15.1.1"
  },
  {
    "interval": "=15.0.0",
    "lowest": "<1.0.0",
    "highest": ">15.0.0"
  },
  {
    "interval": "=15001.1001.0-dev-harmony-fb",
    "lowest": "<1001.1001.1000-dev-harmony-fb",
    "highest": ">15001.1001.0-dev-harmony-fb"
  },
  {
    "interval": "=16.0.0",
    "lowest": "<1.0.1",
    "highest": ">16.0.0"
  },
  {
    "interval": "=17.0.2",
    "lowest": "<0.0.0-375616788",
    "highest": ">18.3.0-next-fecc288b7-20221025"
  },
  {
    "interval": "=17.0.32",
    "lowest": "<0.0.14-alpha",
    "highest": ">17.0.32"
  },
  {
    "interval": "=17.1.0",
    "lowest": "<1.0.0",
    "highest": ">17.1.0"
  },
  {
    "interval": "=17.1.1",
    "lowest": "<14.4.0",
    "highest": ">17.1.1"
  },
  {
    "interval": "=17.11.0",
    "lowest": "<6.4.2",
    "highest": ">17.11.0"
  },
  {
    "interval": "=17.2.3",
    "lowest": "<6.5.15-alpha",
    "highest": ">17.2.3"
  },
  {
    "interval": "=17.7.2",
    "lowest": "<1.0.0",
    "highest": ">17.7.2"
  },
  {
    "interval": "=18.2.0",
    "lowest": "<0.0.0-375616788",
    "highest": ">18.3.0-next-fecc288b7-20221025"
  },
  {
    "interval": "=2.0.0",
    "lowest": "<0.0.0",
    "highest": ">2.0.0"
  },
  {
    "interval": "=2.0.0",
    "lowest": "<0.1.0",
    "highest": ">2.0.0"
  },
  {
    "interval": "=2.0.0",
    "lowest": "<0.1.0",
    "highest": ">3.0.0-canary.1"
  },
  {
    "interval": "=2.0.0",
    "lowest": "<0.1.0",
    "highest": ">3.0.1"
  },
  {
    "interval": "=2.0.0",
    "lowest": "<0.1.0",
    "highest": ">4.0.0"
  },
  {
    "interval": "=2.0.0",
    "lowest": "<0.1.0",
    "highest": ">5.0.0"
  },
  {
    "interval": "=2.0.0",
    "lowest": "<0.1.0",
    "highest": ">5.0.1"
  },
  {
    "interval": "=2.0.0",
    "lowest": "<0.2.0",
    "highest": ">9.4.0"
  },
  {
    "interval": "=2.0.0",
    "lowest": "<1.0.0",
    "highest": ">2.0.0"
  },
  {
    "interval": "=2.0.0",
    "lowest": "<1.0.0",
    "highest": ">3.0.0"
  },
  {
    "interval": "=2.0.0",
    "lowest": "<1.0.0",
    "highest": ">3.0.2"
  },
  {
    "interval": "=2.0.0",
    "lowest": "<1.0.0",
    "highest": ">3.1.1"
  },
  {
    "interval": "=2.0.0",
    "lowest": "<1.0.0",
    "highest": ">4.0.0"
  },
  {
    "interval": "=2.0.0",
    "lowest": "<1.0.0",
    "highest": ">5.0.0"
  },
  {
    "interval": "=2.0.0",
    "lowest": "<1.0.0",
    "highest": ">5.1.0"
  },
  {
    "interval": "=2.0.0",
    "lowest": "<1.0.0",
    "highest": ">6.0.0"
  },
  {
    "interval": "=2.0.0",
    "lowest": "<1.0.0",
    "highest": ">6.0.2"
  },
  {
    "interval": "=2.0.0",
    "lowest": "<1.0.1",
    "highest": ">2.0.0"
  },
  {
    "interval": "=2.0.0",
    "lowest": "<1.3.0",
    "highest": ">3.0.1"
  },
  {
    "interval": "=2.0.0",
    "lowest": "<2.0.0",
    "highest": ">2.0.0"
  },
  {
    "interval": "=2.0.0",
    "lowest": "<2.0.0",
    "highest": ">3.0.0"
  },
  {
    "interval": "=2.0.1",
    "lowest": "<0.0.0",
    "highest": ">3.0.0"
  },
  {
    "interval": "=2.0.1",
    "lowest": "<0.1.0",
    "highest": ">2.0.1"
  },
  {
    "interval": "=2.0.1",
    "lowest": "<0.1.0",
    "highest": ">3.0.2"
  },
  {
    "interval": "=2.0.1",
    "lowest": "<0.1.0",
    "highest": ">4.0.3"
  },
  {
    "interval": "=2.0.1",
    "lowest": "<0.1.0",
    "highest": ">4.1.0"
  },
  {
    "interval": "=2.0.1",
    "lowest": "<0.1.0",
    "highest": ">5.0.1"
  },
  {
    "interval": "=2.0.1",
    "lowest": "<0.2.0",
    "highest": ">3.0.0"
  },
  {
    "interval": "=2.0.1",
    "lowest": "<1.0.0",
    "highest": ">2.0.1"
  },
  {
    "interval": "=2.0.1",
    "lowest": "<1.0.0",
    "highest": ">3.0.0"
  },
  {
    "interval": "=2.0.1",
    "lowest": "<2.0.0",
    "highest": ">2.0.1"
  },
  {
    "interval": "=2.0.10",
    "lowest": "<0.0.1",
    "highest": ">9.0.3"
  },
  {
    "interval": "=2.0.10",
    "lowest": "<0.1.0",
    "highest": ">2.0.10"
  },
  {
    "interval": "=2.0.14",
    "lowest": "<1.1.1",
    "highest": ">2.0.14"
  },
  {
    "interval": "=2.0.15",
    "lowest": "<1.0.0",
    "highest": ">2.0.15"
  },
  {
    "interval": "=2.0.16",
    "lowest": "<1.0.0",
    "highest": ">2.0.16"
  },
  {
    "interval": "=2.0.17",
    "lowest": "<1.0.0",
    "highest": ">2.0.17"
  },
  {
    "interval": "=2.0.18",
    "lowest": "<1.0.0",
    "highest": ">2.0.17"
  },
  {
    "interval": "=2.0.2",
    "lowest": "<0.0.0",
    "highest": ">2.0.2"
  },
  {
    "interval": "=2.0.2",
    "lowest": "<0.1.0",
    "highest": ">2.0.2"
  },
  {
    "interval": "=2.0.2",
    "lowest": "<1.0.0",
    "highest": ">2.0.2"
  },
  {
    "interval": "=2.0.2",
    "lowest": "<1.0.0",
    "highest": ">3.0.3"
  },
  {
    "interval": "=2.0.2",
    "lowest": "<1.0.0",
    "highest": ">4.0.0"
  },
  {
    "interval": "=2.0.21",
    "lowest": "<1.0.0",
    "highest": ">2.0.21"
  },
  {
    "interval": "=2.0.23",
    "lowest": "<1.0.0",
    "highest": ">2.0.22"
  },
  {
    "interval": "=2.0.23",
    "lowest": "<1.0.0",
    "highest": ">2.0.23"
  },
  {
    "interval": "=2.0.25",
    "lowest": "<1.0.0",
    "highest": ">2.0.24"
  },
  {
    "interval": "=2.0.3",
    "lowest": "<0.0.1",
    "highest": ">9.0.1"
  },
  {
    "interval": "=2.0.3",
    "lowest": "<0.1.0",
    "highest": ">2.0.3"
  },
  {
    "interval": "=2.0.3",
    "lowest": "<1.0.0",
    "highest": ">2.0.3"
  },
  {
    "interval": "=2.0.3",
    "lowest": "<2.0.2",
    "highest": ">2.0.3"
  },
  {
    "interval": "=2.0.30",
    "lowest": "<1.0.0",
    "highest": ">2.0.29"
  },
  {
    "interval": "=2.0.4",
    "lowest": "<0.0.0",
    "highest": ">2.0.4"
  },
  {
    "interval": "=2.0.4",
    "lowest": "<0.1.0",
    "highest": ">3.0.0"
  },
  {
    "interval": "=2.0.4",
    "lowest": "<0.1.0",
    "highest": ">5.0.0"
  },
  {
    "interval": "=2.0.4",
    "lowest": "<1.0.0",
    "highest": ">2.0.4"
  },
  {
    "interval": "=2.0.5",
    "lowest": "<0.0.0",
    "highest": ">2.0.5"
  },
  {
    "interval": "=2.0.5",
    "lowest": "<1.0.0",
    "highest": ">2.0.5"
  },
  {
    "interval": "=2.0.5",
    "lowest": "<1.0.0",
    "highest": ">3.0.0"
  },
  {
    "interval": "=2.0.6",
    "lowest": "<0.0.1",
    "highest": ">2.0.6"
  },
  {
    "interval": "=2.0.6",
    "lowest": "<0.1.0",
    "highest": ">3.0.1"
  },
  {
    "interval": "=2.0.6",
    "lowest": "<1.0.4",
    "highest": ">3.0.0"
  },
  {
    "interval": "=2.0.6",
    "lowest": "<1.1.0",
    "highest": ">2.0.6"
  },
  {
    "interval": "=2.0.7",
    "lowest": "<0.0.1-security",
    "highest": ">2.0.7"
  },
  {
    "interval": "=2.0.8",
    "lowest": "<1.0.0",
    "highest": ">2.0.8"
  },
  {
    "interval": "=2.0.9",
    "lowest": "<1.0.0",
    "highest": ">2.0.9"
  },
  {
    "interval": "=2.1.0",
    "lowest": "<0.1.0",
    "highest": ">3.0.1"
  },
  {
    "interval": "=2.1.0",
    "lowest": "<0.1.0",
    "highest": ">4.0.0"
  },
  {
    "interval": "=2.1.0",
    "lowest": "<0.1.0",
    "highest": ">7.0.0"
  },
  {
    "interval": "=2.1.0",
    "lowest": "<1.0.0",
    "highest": ">2.1.0"
  },
  {
    "interval": "=2.1.0",
    "lowest": "<1.0.0",
    "highest": ">3.0.0"
  },
  {
    "interval": "=2.1.0",
    "lowest": "<1.0.0",
    "highest": ">5.0.0"
  },
  {
    "interval": "=2.1.0",
    "lowest": "<1.0.0",
    "highest": ">8.0.1"
  },
  {
    "interval": "=2.1.0",
    "lowest": "<1.0.2",
    "highest": ">2.1.0"
  },
  {
    "interval": "=2.1.0",
    "lowest": "<1.1.0",
    "highest": ">6.0.0"
  },
  {
    "interval": "=2.1.0",
    "lowest": "<1.2.0",
    "highest": ">3.0.0"
  },
  {
    "interval": "=2.1.1",
    "lowest": "<0.0.1",
    "highest": ">2.1.1"
  },
  {
    "interval": "=2.1.1",
    "lowest": "<0.1.0",
    "highest": ">3.0.0"
  },
  {
    "interval": "=2.1.1",
    "lowest": "<0.1.0",
    "highest": ">5.0.1"
  },
  {
    "interval": "=2.1.1",
    "lowest": "<0.1.0",
    "highest": ">6.0.1"
  },
  {
    "interval": "=2.1.1",
    "lowest": "<1.0.0",
    "highest": ">2.1.1"
  },
  {
    "interval": "=2.1.1",
    "lowest": "<1.0.1",
    "highest": ">2.1.1"
  },
  {
    "interval": "=2.1.2",
    "lowest": "<0.1.0",
    "highest": ">3.0.0-canary.1"
  },
  {
    "interval": "=2.1.2",
    "lowest": "<1.0.0",
    "highest": ">2.1.2"
  },
  {
    "interval": "=2.1.2",
    "lowest": "<2.0.0",
    "highest": ">2.1.2"
  },
  {
    "interval": "=2.1.35",
    "lowest": "<0.1.0",
    "highest": ">2.1.35"
  },
  {
    "interval": "=2.1.4",
    "lowest": "<0.0.1",
    "highest": ">2.1.4"
  },
  {
    "interval": "=2.1.4",
    "lowest": "<0.1.0",
    "highest": ">4.0.0"
  },
  {
    "interval": "=2.1.4",
    "lowest": "<1.0.0",
    "highest": ">2.1.4"
  },
  {
    "interval": "=2.1.5",
    "lowest": "<1.0.0",
    "highest": ">3.0.0"
  },
  {
    "interval": "=2.1.5",
    "lowest": "<1.0.26-3",
    "highest": ">4.4.2"
  },
  {
    "interval": "=2.1.8",
    "lowest": "<1.0.0",
    "highest": ">2.1.8"
  },
  {
    "interval": "=2.11.0",
    "lowest": "<0.0.1",
    "highest": ">2.11.0"
  },
  {
    "interval": "=2.11.0",
    "lowest": "<0.7.1-1",
    "highest": ">3.7.2"
  },
  {
    "interval": "=2.13.1",
    "lowest": "<1.0.0",
    "highest": ">2.13.1"
  },
  {
    "interval": "=2.1526.0",
    "lowest": "<0.9.0-pre.1",
    "highest": ">2.1389.0"
  },
  {
    "interval": "=2.18.0",
    "lowest": "<0.3.0-wip",
    "highest": ">2.18.0"
  },
  {
    "interval": "=2.2.0",
    "lowest": "<1.0.0",
    "highest": ">2.1.18"
  },
  {
    "interval": "=2.2.0",
    "lowest": "<1.0.0",
    "highest": ">3.0.0"
  },
  {
    "interval": "=2.2.1",
    "lowest": "<0.0.1",
    "highest": ">2.2.1"
  },
  {
    "interval": "=2.2.1",
    "lowest": "<0.1.0",
    "highest": ">2.2.1"
  },
  {
    "interval": "=2.2.1",
    "lowest": "<0.1.0",
    "highest": ">3.6.0"
  },
  {
    "interval": "=2.2.1",
    "lowest": "<0.1.0",
    "highest": ">6.2.1"
  },
  {
    "interval": "=2.2.1",
    "lowest": "<1.0.0",
    "highest": ">2.2.1"
  },
  {
    "interval": "=2.2.3",
    "lowest": "<0.0.0",
    "highest": ">2.2.3"
  },
  {
    "interval": "=2.2.3",
    "lowest": "<1.0.0",
    "highest": ">2.2.3"
  },
  {
    "interval": "=2.2.4",
    "lowest": "<0.1.0",
    "highest": ">7.0.1"
  },
  {
    "interval": "=2.2.7",
    "lowest": "<1.0.0",
    "highest": ">2.2.7"
  },
  {
    "interval": "=2.20.3",
    "lowest": "<0.0.1",
    "highest": ">12.0.0-0"
  },
  {
    "interval": "=2.29.1",
    "lowest": "<0.3.0",
    "highest": ">2.29.0"
  },
  {
    "interval": "=2.3.0",
    "lowest": "<1.0.0",
    "highest": ">5.0.0"
  },
  {
    "interval": "=2.3.1",
    "lowest": "<0.0.1",
    "highest": ">2.3.1"
  },
  {
    "interval": "=2.3.1",
    "lowest": "<1.0.0",
    "highest": ">2.3.1"
  },
  {
    "interval": "=2.3.1",
    "lowest": "<1.0.0",
    "highest": ">3.0.1"
  },
  {
    "interval": "=2.3.1",
    "lowest": "<2.0.0",
    "highest": ">3.0.1"
  },
  {
    "interval": "=2.3.11",
    "lowest": "<0.1.0",
    "highest": ">4.0.5"
  },
  {
    "interval": "=2.3.2",
    "lowest": "<0.1.0",
    "highest": ">3.0.2"
  },
  {
    "interval": "=2.3.3",
    "lowest": "<0.1.1",
    "highest": ">2.3.3"
  },
  {
    "interval": "=2.3.6",
    "lowest": "<2.0.0",
    "highest": ">2.3.6"
  },
  {
    "interval": "=2.3.8",
    "lowest": "<0.0.1",
    "highest": ">2.3.8"
  },
  {
    "interval": "=2.3.8",
    "lowest": "<1.0.26-3",
    "highest": ">4.4.2"
  },
  {
    "interval": "=2.30.1",
    "lowest": "<1.0.0",
    "highest": ">2.29.4"
  },
  {
    "interval": "=2.4.2",
    "lowest": "<0.1.0",
    "highest": ">5.3.0"
  },
  {
    "interval": "=2.4.2",
    "lowest": "<0.1.0-1",
    "highest": ">2.4.2"
  },
  {
    "interval": "=2.4.3",
    "lowest": "<1.0.1",
    "highest": ">2.4.3"
  },
  {
    "interval": "=2.5.2",
    "lowest": "<0.3.0",
    "highest": ">3.0.2"
  },
  {
    "interval": "=2.6.0",
    "lowest": "<1.0.0",
    "highest": ">2.6.0"
  },
  {
    "interval": "=2.6.2",
    "lowest": "<1.11.2",
    "highest": ">2.6.2"
  },
  {
    "interval": "=2.6.9",
    "lowest": "<0.0.1",
    "highest": ">4.3.4"
  },
  {
    "interval": "=2.7.0",
    "lowest": "<1.0.0",
    "highest": ">2.7.0"
  },
  {
    "interval": "=2.7.1",
    "lowest": "<1.0.0",
    "highest": ">5.0.5"
  },
  {
    "interval": "=2.8.0",
    "lowest": "<0.1.0",
    "highest": ">2.8.0"
  },
  {
    "interval": "=20.10.5",
    "lowest": "<0.0.0",
    "highest": ">20.8.8"
  },
  {
    "interval": "=21.0.3",
    "lowest": "<11.0.0",
    "highest": ">21.0.3"
  },
  {
    "interval": "=21.1.1",
    "lowest": "<1.0.0",
    "highest": ">21.1.1"
  },
  {
    "interval": "=27.5.1",
    "lowest": "<0.0.0",
    "highest": ">30.0.0-alpha.2"
  },
  {
    "interval": "=27.5.1",
    "lowest": "<1.0.0",
    "highest": ">30.0.0-alpha.2"
  },
  {
    "interval": "=27.5.2",
    "lowest": "<0.9.14-alpha",
    "highest": ">29.5.11"
  },
  {
    "interval": "=29.1.1",
    "lowest": "<0.0.1",
    "highest": ">29.1.1"
  },
  {
    "interval": "=29.6.3",
    "lowest": "<0.0.0",
    "highest": ">30.0.0-alpha.2"
  },
  {
    "interval": "=29.6.3",
    "lowest": "<21.2.0",
    "highest": ">30.0.0-alpha.2"
  },
  {
    "interval": "=29.6.3",
    "lowest": "<24.2.0-alpha.0",
    "highest": ">30.0.0-alpha.2"
  },
  {
    "interval": "=29.6.3",
    "lowest": "<28.0.0-alpha.1",
    "highest": ">30.0.0-alpha.2"
  },
  {
    "interval": "=29.7.0",
    "lowest": "<0.0.0",
    "highest": ">30.0.0-alpha.2"
  },
  {
    "interval": "=29.7.0",
    "lowest": "<0.0.1",
    "highest": ">30.0.0-alpha.2"
  },
  {
    "interval": "=29.7.0",
    "lowest": "<0.0.2-pre",
    "highest": ">30.0.0-alpha.2"
  },
  {
    "interval": "=29.7.0",
    "lowest": "<0.0.6",
    "highest": ">30.0.0-alpha.2"
  },
  {
    "interval": "=29.7.0",
    "lowest": "<1.0.0",
    "highest": ">30.0.0-alpha.2"
  },
  {
    "interval": "=29.7.0",
    "lowest": "<21.2.0",
    "highest": ">30.0.0-alpha.2"
  },
  {
    "interval": "=29.7.0",
    "lowest": "<23.1.0",
    "highest": ">30.0.0-alpha.2"
  },
  {
    "interval": "=29.7.0",
    "lowest": "<24.2.0-alpha.0",
    "highest": ">30.0.0-alpha.2"
  },
  {
    "interval": "=29.7.0",
    "lowest": "<24.7.0",
    "highest": ">30.0.0-alpha.2"
  },
  {
    "interval": "=29.7.0",
    "lowest": "<25.5.0",
    "highest": ">30.0.0-alpha.2"
  },
  {
    "interval": "=29.7.0",
    "lowest": "<28.0.0-alpha.0",
    "highest": ">30.0.0-alpha.2"
  },
  {
    "interval": "=29.7.0",
    "lowest": "<28.0.0-alpha.2",
    "highest": ">30.0.0-alpha.2"
  },
  {
    "interval": "=29.7.0",
    "lowest": "<4.0.0",
    "highest": ">30.0.0-alpha.2"
  },
  {
    "interval": "=3.0.0",
    "lowest": "<0.1.0",
    "highest": ">3.0.0"
  },
  {
    "interval": "=3.0.0",
    "lowest": "<0.1.0",
    "highest": ">4.1.1"
  },
  {
    "interval": "=3.0.0",
    "lowest": "<0.1.0",
    "highest": ">5.0.0"
  },
  {
    "interval": "=3.0.0",
    "lowest": "<0.1.0",
    "highest": ">5.1.0"
  },
  {
    "interval": "=3.0.0",
    "lowest": "<0.1.0",
    "highest": ">7.0.0"
  },
  {
    "interval": "=3.0.0",
    "lowest": "<0.1.0-preview.1",
    "highest": ">4.0.0"
  },
  {
    "interval": "=3.0.0",
    "lowest": "<0.1.0-preview.1",
    "highest": ">5.2.0"
  },
  {
    "interval": "=3.0.0",
    "lowest": "<0.1.1",
    "highest": ">3.0.0"
  },
  {
    "interval": "=3.0.0",
    "lowest": "<0.2.1",
    "highest": ">5.2.0"
  },
  {
    "interval": "=3.0.0",
    "lowest": "<1.0.0",
    "highest": ">3.0.0"
  },
  {
    "interval": "=3.0.0",
    "lowest": "<1.0.0",
    "highest": ">4.0.0"
  },
  {
    "interval": "=3.0.0",
    "lowest": "<1.0.0",
    "highest": ">5.0.0"
  },
  {
    "interval": "=3.0.0",
    "lowest": "<1.0.0",
    "highest": ">5.0.1"
  },
  {
    "interval": "=3.0.0",
    "lowest": "<1.2.0",
    "highest": ">5.2.0"
  },
  {
    "interval": "=3.0.1",
    "lowest": "<0.1.0",
    "highest": ">4.0.0"
  },
  {
    "interval": "=3.0.1",
    "lowest": "<0.1.0",
    "highest": ">5.0.1"
  },
  {
    "interval": "=3.0.1",
    "lowest": "<0.1.0",
    "highest": ">7.0.1"
  },
  {
    "interval": "=3.0.1",
    "lowest": "<0.1.0",
    "highest": ">7.1.0"
  },
  {
    "interval": "=3.0.1",
    "lowest": "<1.0.0",
    "highest": ">3.0.1"
  },
  {
    "interval": "=3.0.1",
    "lowest": "<1.0.0-alpha.0",
    "highest": ">3.0.1"
  },
  {
    "interval": "=3.0.1",
    "lowest": "<3.0.0",
    "highest": ">3.0.1"
  },
  {
    "interval": "=3.0.11",
    "lowest": "<1.0.1",
    "highest": ">3.0.11"
  },
  {
    "interval": "=3.0.2",
    "lowest": "<0.0.1",
    "highest": ">3.0.2"
  },
  {
    "interval": "=3.0.2",
    "lowest": "<0.1.0",
    "highest": ">3.0.2"
  },
  {
    "interval": "=3.0.2",
    "lowest": "<0.9.0-1.2.3",
    "highest": ">5.0.3"
  },
  {
    "interval": "=3.0.2",
    "lowest": "<1.0.0",
    "highest": ">5.0.5"
  },
  {
    "interval": "=3.0.3",
    "lowest": "<0.0.0",
    "highest": ">4.1.5"
  },
  {
    "interval": "=3.0.3",
    "lowest": "<0.1.0",
    "highest": ">4.0.0"
  },
  {
    "interval": "=3.0.3",
    "lowest": "<1.1.0",
    "highest": ">3.0.3"
  },
  {
    "interval": "=3.0.4",
    "lowest": "<1.0.0",
    "highest": ">3.0.4"
  },
  {
    "interval": "=3.0.4",
    "lowest": "<1.1.0",
    "highest": ">3.0.4"
  },
  {
    "interval": "=3.0.7",
    "lowest": "<1.0.0",
    "highest": ">4.1.0"
  },
  {
    "interval": "=3.1.0",
    "lowest": "<0.1.0",
    "highest": ">3.1.0"
  },
  {
    "interval": "=3.1.0",
    "lowest": "<0.1.0",
    "highest": ">4.0.1"
  },
  {
    "interval": "=3.1.0",
    "lowest": "<0.1.0",
    "highest": ">4.1.0"
  },
  {
    "interval": "=3.1.0",
    "lowest": "<0.1.0",
    "highest": ">6.0.1"
  },
  {
    "interval": "=3.1.0",
    "lowest": "<0.1.0",
    "highest": ">6.1.0"
  },
  {
    "interval": "=3.1.0",
    "lowest": "<1.0.0",
    "highest": ">3.1.0"
  },
  {
    "interval": "=3.1.0",
    "lowest": "<1.0.0",
    "highest": ">4.0.0"
  },
  {
    "interval": "=3.1.0",
    "lowest": "<1.0.0",
    "highest": ">5.0.0"
  },
  {
    "interval": "=3.1.1",
    "lowest": "<0.0.0",
    "highest": ">3.1.1"
  },
  {
    "interval": "=3.1.1",
    "lowest": "<0.0.1",
    "highest": ">4.0.0-alpha.3"
  },
  {
    "interval": "=3.1.1",
    "lowest": "<0.1.0",
    "highest": ">3.1.1"
  },
  {
    "interval": "=3.1.1",
    "lowest": "<0.1.0",
    "highest": ">5.0.1"
  },
  {
    "interval": "=3.1.1",
    "lowest": "<1.0.0",
    "highest": ">3.1.1"
  },
  {
    "interval": "=3.1.1",
    "lowest": "<1.0.0",
    "highest": ">4.0.0"
  },
  {
    "interval": "=3.1.1",
    "lowest": "<1.0.0",
    "highest": ">5.0.0"
  },
  {
    "interval": "=3.1.1",
    "lowest": "<1.1.0",
    "highest": ">3.1.1"
  },
  {
    "interval": "=3.1.10",
    "lowest": "<0.1.0",
    "highest": ">4.0.5"
  },
  {
    "interval": "=3.1.2",
    "lowest": "<0.0.1",
    "highest": ">9.0.3"
  },
  {
    "interval": "=3.1.2",
    "lowest": "<2.4.2",
    "highest": ">4.0.8"
  },
  {
    "interval": "=3.1.3",
    "lowest": "<0.0.1",
    "highest": ">3.1.3"
  },
  {
    "interval": "=3.1.3",
    "lowest": "<1.0.0",
    "highest": ">3.1.3"
  },
  {
    "interval": "=3.1.6",
    "lowest": "<1.0.0-alpha.0",
    "highest": ">3.1.6"
  },
  {
    "interval": "=3.1.7",
    "lowest": "<1.0.0",
    "highest": ">3.1.7"
  },
  {
    "interval": "=3.10.1",
    "lowest": "<0.1.0",
    "highest": ">4.17.21"
  },
  {
    "interval": "=3.10.2",
    "lowest": "<0.0.1",
    "highest": ">3.10.2"
  },
  {
    "interval": "=3.11.0",
    "lowest": "<0.2.11",
    "highest": ">3.11.0"
  },
  {
    "interval": "=3.14.1",
    "lowest": "<0.2.0",
    "highest": ">4.1.0"
  },
  {
    "interval": "=3.15.0",
    "lowest": "<0.4.0",
    "highest": ">4.2.0"
  },
  {
    "interval": "=3.2.0",
    "lowest": "<1.0.0",
    "highest": ">3.2.0"
  },
  {
    "interval": "=3.2.1",
    "lowest": "<0.1.0",
    "highest": ">4.2.3"
  },
  {
    "interval": "=3.2.1",
    "lowest": "<0.1.0",
    "highest": ">6.2.1"
  },
  {
    "interval": "=3.2.2",
    "lowest": "<0.1.0",
    "highest": ">6.0.3"
  },
  {
    "interval": "=3.2.2",
    "lowest": "<1.0.0",
    "highest": ">6.0.0-alpha.0"
  },
  {
    "interval": "=3.2.2",
    "lowest": "<1.0.0-alpha.0",
    "highest": ">3.2.2"
  },
  {
    "interval": "=3.2.5",
    "lowest": "<0.1.0",
    "highest": ">3.2.5"
  },
  {
    "interval": "=3.2.7",
    "lowest": "<0.0.1",
    "highest": ">4.3.4"
  },
  {
    "interval": "=3.2.9",
    "lowest": "<0.1.0",
    "highest": ">3.2.9"
  },
  {
    "interval": "=3.259.0",
    "lowest": "<0.1.0-preview.1",
    "highest": ">3.259.0"
  },
  {
    "interval": "=3.27.0",
    "lowest": "<1.0.0",
    "highest": ">17.7.2"
  },
  {
    "interval": "=3.3.0",
    "lowest": "<2.0.0",
    "highest": ">3.3.0"
  },
  {
    "interval": "=3.3.1",
    "lowest": "<0.1.0",
    "highest": ">14.0.0"
  },
  {
    "interval": "=3.3.2",
    "lowest": "<1.0.0",
    "highest": ">3.3.2"
  },
  {
    "interval": "=3.34.0",
    "lowest": "<3.0.0-beta.6",
    "highest": ">3.34.0"
  },
  {
    "interval": "=3.4.3",
    "lowest": "<0.1.0",
    "highest": ">3.4.3"
  },
  {
    "interval": "=3.4.7",
    "lowest": "<0.7.1-1",
    "highest": ">3.7.2"
  },
  {
    "interval": "=3.465.0",
    "lowest": "<0.1.0-preview.1",
    "highest": ">3.465.0"
  },
  {
    "interval": "=3.465.0",
    "lowest": "<1.0.0-gamma.1",
    "highest": ">3.465.0"
  },
  {
    "interval": "=3.465.0",
    "lowest": "<3.16.0",
    "highest": ">3.465.0"
  },
  {
    "interval": "=3.468.0",
    "lowest": "<0.1.0-preview.1",
    "highest": ">3.468.0"
  },
  {
    "interval": "=3.468.0",
    "lowest": "<0.1.0-preview.2",
    "highest": ">3.468.0"
  },
  {
    "interval": "=3.468.0",
    "lowest": "<1.0.0-alpha.1",
    "highest": ">3.468.0"
  },
  {
    "interval": "=3.468.0",
    "lowest": "<1.0.0-gamma.1",
    "highest": ">3.468.0"
  },
  {
    "interval": "=3.468.0",
    "lowest": "<3.10.0",
    "highest": ">3.468.0"
  },
  {
    "interval": "=3.468.0",
    "lowest": "<3.105.0",
    "highest": ">3.468.0"
  },
  {
    "interval": "=3.468.0",
    "lowest": "<3.53.0",
    "highest": ">3.468.0"
  },
  {
    "interval": "=3.470.0",
    "lowest": "<0.1.0-preview.2",
    "highest": ">3.468.0"
  },
  {
    "interval": "=3.470.0",
    "lowest": "<1.0.0-alpha.1",
    "highest": ">3.468.0"
  },
  {
    "interval": "=3.470.0",
    "lowest": "<3.16.0",
    "highest": ">3.468.0"
  },
  {
    "interval": "=3.470.0",
    "lowest": "<3.408.0",
    "highest": ">3.468.0"
  },
  {
    "interval": "=3.472.0",
    "lowest": "<0.1.0-preview.1",
    "highest": ">3.465.0"
  },
  {
    "interval": "=3.478.0",
    "lowest": "<1.0.0-alpha.1",
    "highest": ">3.468.0"
  },
  {
    "interval": "=3.478.0",
    "lowest": "<3.159.0",
    "highest": ">3.468.0"
  },
  {
    "interval": "=3.481.0",
    "lowest": "<0.1.0-preview.1",
    "highest": ">3.468.0"
  },
  {
    "interval": "=3.481.0",
    "lowest": "<0.1.0-preview.2",
    "highest": ">3.468.0"
  },
  {
    "interval": "=3.481.0",
    "lowest": "<1.0.0-alpha.1",
    "highest": ">3.468.0"
  },
  {
    "interval": "=3.481.0",
    "lowest": "<1.0.0-alpha.2",
    "highest": ">3.468.0"
  },
  {
    "interval": "=3.481.0",
    "lowest": "<1.0.0-gamma.1",
    "highest": ">3.468.0"
  },
  {
    "interval": "=3.481.0",
    "lowest": "<3.13.0",
    "highest": ">3.468.0"
  },
  {
    "interval": "=3.481.0",
    "lowest": "<3.159.0",
    "highest": ">3.468.0"
  },
  {
    "interval": "=3.481.0",
    "lowest": "<3.208.0",
    "highest": ">3.468.0"
  },
  {
    "interval": "=3.481.0",
    "lowest": "<3.429.0",
    "highest": ">3.468.0"
  },
  {
    "interval": "=3.481.0",
    "lowest": "<3.66.0",
    "highest": ">3.468.0"
  },
  {
    "interval": "=3.481.0",
    "lowest": "<3.7.0",
    "highest": ">3.468.0"
  },
  {
    "interval": "=3.481.0",
    "lowest": "<3.8.0",
    "highest": ">3.468.0"
  },
  {
    "interval": "=3.6.2",
    "lowest": "<1.0.26-3",
    "highest": ">4.4.2"
  },
  {
    "interval": "=3.7.1",
    "lowest": "<1.0.0",
    "highest": ">4.1.2"
  },
  {
    "interval": "=3.7.2",
    "lowest": "<0.7.1-1",
    "highest": ">3.7.2"
  },
  {
    "interval": "=3.9.0",
    "lowest": "<1.0.0",
    "highest": ">4.0.0"
  },
  {
    "interval": "=4.0.0",
    "lowest": "<0.0.0",
    "highest": ">4.0.0"
  },
  {
    "interval": "=4.0.0",
    "lowest": "<0.1.0",
    "highest": ">4.0.0"
  },
  {
    "interval": "=4.0.0",
    "lowest": "<0.1.0",
    "highest": ">5.0.0"
  },
  {
    "interval": "=4.0.0",
    "lowest": "<0.1.0",
    "highest": ">6.0.3"
  },
  {
    "interval": "=4.0.0",
    "lowest": "<0.1.0",
    "highest": ">7.0.0"
  },
  {
    "interval": "=4.0.0",
    "lowest": "<0.1.0",
    "highest": ">7.0.1"
  },
  {
    "interval": "=4.0.0",
    "lowest": "<0.1.0",
    "highest": ">8.0.2"
  },
  {
    "interval": "=4.0.0",
    "lowest": "<1.0.0",
    "highest": ">4.0.0"
  },
  {
    "interval": "=4.0.0",
    "lowest": "<1.0.0",
    "highest": ">5.0.0"
  },
  {
    "interval": "=4.0.0",
    "lowest": "<1.0.0",
    "highest": ">5.0.1"
  },
  {
    "interval": "=4.0.0",
    "lowest": "<1.1.1",
    "highest": ">4.0.0"
  },
  {
    "interval": "=4.0.1",
    "lowest": "<0.1.0",
    "highest": ">9.0.0"
  },
  {
    "interval": "=4.0.1",
    "lowest": "<1.0.0",
    "highest": ">5.1.0"
  },
  {
    "interval": "=4.0.1",
    "lowest": "<1.0.0-alpha.1",
    "highest": ">4.0.1"
  },
  {
    "interval": "=4.0.2",
    "lowest": "<0.1.0",
    "highest": ">6.0.0"
  },
  {
    "interval": "=4.0.2",
    "lowest": "<1.0.0",
    "highest": ">5.0.1"
  },
  {
    "interval": "=4.0.2",
    "lowest": "<2.0.1",
    "highest": ">5.1.0"
  },
  {
    "interval": "=4.0.3",
    "lowest": "<0.1.0",
    "highest": ">4.0.3"
  },
  {
    "interval": "=4.0.5",
    "lowest": "<0.1.0",
    "highest": ">4.0.5"
  },
  {
    "interval": "=4.0.6",
    "lowest": "<1.0.0",
    "highest": ">4.0.6"
  },
  {
    "interval": "=4.0.8",
    "lowest": "<0.1.0",
    "highest": ">4.0.8"
  },
  {
    "interval": "=4.0.8",
    "lowest": "<2.0.0",
    "highest": ">4.0.8"
  },
  {
    "interval": "=4.1.0",
    "lowest": "<0.2.0",
    "highest": ">4.1.0"
  },
  {
    "interval": "=4.1.0",
    "lowest": "<1.0.0",
    "highest": ">4.1.0"
  },
  {
    "interval": "=4.1.0",
    "lowest": "<1.0.0",
    "highest": ">6.0.0"
  },
  {
    "interval": "=4.1.0",
    "lowest": "<1.0.0",
    "highest": ">7.0.0"
  },
  {
    "interval": "=4.1.0",
    "lowest": "<2.0.0",
    "highest": ">5.1.1"
  },
  {
    "interval": "=4.1.1",
    "lowest": "<0.1.0",
    "highest": ">4.1.1"
  },
  {
    "interval": "=4.1.2",
    "lowest": "<0.1.0",
    "highest": ">5.3.0"
  },
  {
    "interval": "=4.1.2",
    "lowest": "<2.0.0",
    "highest": ">4.1.2"
  },
  {
    "interval": "=4.1.3",
    "lowest": "<1.0.0",
    "highest": ">5.0.2"
  },
  {
    "interval": "=4.1.4",
    "lowest": "<4.1.0",
    "highest": ">5.0.0"
  },
  {
    "interval": "=4.1.5",
    "lowest": "<0.1.0",
    "highest": ">4.1.5"
  },
  {
    "interval": "=4.1.9",
    "lowest": "<2.0.15-alpha",
    "highest": ">4.1.9"
  },
  {
    "interval": "=4.10.0",
    "lowest": "<3.2.0",
    "highest": ">4.10.0"
  },
  {
    "interval": "=4.12.0",
    "lowest": "<0.1.0",
    "highest": ">5.2.1"
  },
  {
    "interval": "=4.17.21",
    "lowest": "<0.1.0",
    "highest": ">4.17.21"
  },
  {
    "interval": "=4.2.0",
    "lowest": "<1.0.0",
    "highest": ">8.0.0"
  },
  {
    "interval": "=4.2.1",
    "lowest": "<1.0.0",
    "highest": ">6.2.0"
  },
  {
    "interval": "=4.2.11",
    "lowest": "<1.0.0",
    "highest": ">4.2.11"
  },
  {
    "interval": "=4.2.3",
    "lowest": "<0.2.1",
    "highest": ">4.2.3"
  },
  {
    "interval": "=4.2.3",
    "lowest": "<1.0.0",
    "highest": ">5.1.1"
  },
  {
    "interval": "=4.2.3",
    "lowest": "<1.0.0",
    "highest": ">7.0.0"
  },
  {
    "interval": "=4.2.5",
    "lowest": "<1.0.0",
    "highest": ">4.3.2"
  },
  {
    "interval": "=4.22.2",
    "lowest": "<0.1.0",
    "highest": ">4.22.2"
  },
  {
    "interval": "=4.3.0",
    "lowest": "<0.1.0",
    "highest": ">6.2.1"
  },
  {
    "interval": "=4.3.1",
    "lowest": "<0.0.1",
    "highest": ">4.3.1"
  },
  {
    "interval": "=4.3.2",
    "lowest": "<1.0.0",
    "highest": ">6.2.0"
  },
  {
    "interval": "=4.3.4",
    "lowest": "<0.0.1",
    "highest": ">4.3.4"
  },
  {
    "interval": "=4.4.0",
    "lowest": "<3.0.0",
    "highest": ">4.4.0"
  },
  {
    "interval": "=4.4.1",
    "lowest": "<1.4.0",
    "highest": ">4.4.1"
  },
  {
    "interval": "=4.4.2",
    "lowest": "<3.7.0",
    "highest": ">4.4.2"
  },
  {
    "interval": "=4.5.4",
    "lowest": "<0.0.0",
    "highest": ">4.5.4"
  },
  {
    "interval": "=4.6.0",
    "lowest": "<1.0.0",
    "highest": ">4.6.0"
  },
  {
    "interval": "=4.6.0",
    "lowest": "<1.0.1",
    "highest": ">4.6.0"
  },
  {
    "interval": "=4.6.2",
    "lowest": "<2.0.0",
    "highest": ">4.6.2"
  },
  {
    "interval": "=4.7.1",
    "lowest": "<0.0.0",
    "highest": ">5.2.1"
  },
  {
    "interval": "=4.9.2",
    "lowest": "<2.1.1",
    "highest": ">6.0.3"
  },
  {
    "interval": "=5.0.0",
    "lowest": "<1.0.0",
    "highest": ">5.0.0"
  },
  {
    "interval": "=5.0.0",
    "lowest": "<1.0.0",
    "highest": ">6.0.0"
  },
  {
    "interval": "=5.0.0",
    "lowest": "<1.0.0",
    "highest": ">7.0.0"
  },
  {
    "interval": "=5.0.0",
    "lowest": "<1.0.0",
    "highest": ">7.2.0"
  },
  {
    "interval": "=5.0.1",
    "lowest": "<0.1.0",
    "highest": ">5.0.1"
  },
  {
    "interval": "=5.0.1",
    "lowest": "<0.1.0",
    "highest": ">6.0.1"
  },
  {
    "interval": "=5.0.15",
    "lowest": "<1.1.0",
    "highest": ">10.3.10"
  },
  {
    "interval": "=5.0.2",
    "lowest": "<1.6.0",
    "highest": ">6.0.1"
  },
  {
    "interval": "=5.0.5",
    "lowest": "<1.0.0",
    "highest": ">5.0.5"
  },
  {
    "interval": "=5.0.8",
    "lowest": "<1.0.0",
    "highest": ">6.0.0-alpha.0"
  },
  {
    "interval": "=5.1.0",
    "lowest": "<2.0.1",
    "highest": ">5.1.0"
  },
  {
    "interval": "=5.1.0",
    "lowest": "<3.1.0",
    "highest": ">6.0.2"
  },
  {
    "interval": "=5.1.1",
    "lowest": "<0.1.0",
    "highest": ">8.0.1"
  },
  {
    "interval": "=5.1.1",
    "lowest": "<1.0.1",
    "highest": ">10.0.3"
  },
  {
    "interval": "=5.1.1",
    "lowest": "<4.1.0",
    "highest": ">6.0.1"
  },
  {
    "interval": "=5.1.2",
    "lowest": "<0.1.0",
    "highest": ">7.0.0"
  },
  {
    "interval": "=5.1.2",
    "lowest": "<1.0.0",
    "highest": ">5.2.1"
  },
  {
    "interval": "=5.1.2",
    "lowest": "<1.0.0",
    "highest": ">6.0.2"
  },
  {
    "interval": "=5.1.2",
    "lowest": "<1.0.0",
    "highest": ">7.0.0"
  },
  {
    "interval": "=5.1.5",
    "lowest": "<1.0.1",
    "highest": ">5.1.5"
  },
  {
    "interval": "=5.11.0",
    "lowest": "<0.2.0",
    "highest": ">6.0.0-alpha.0"
  },
  {
    "interval": "=5.2.0",
    "lowest": "<0.1.0",
    "highest": ">6.2.1"
  },
  {
    "interval": "=5.2.0",
    "lowest": "<1.0.0",
    "highest": ">8.1.0"
  },
  {
    "interval": "=5.2.1",
    "lowest": "<1.0.0-alpha.0",
    "highest": ">6.0.1"
  },
  {
    "interval": "=5.26.5",
    "lowest": "<0.0.1",
    "highest": ">6.0.1"
  },
  {
    "interval": "=5.3.0",
    "lowest": "<0.1.0",
    "highest": ">5.3.0"
  },
  {
    "interval": "=5.3.1",
    "lowest": "<1.0.0",
    "highest": ">8.0.0"
  },
  {
    "interval": "=5.3.2",
    "lowest": "<0.6.1-1",
    "highest": ">5.3.2"
  },
  {
    "interval": "=5.3.2",
    "lowest": "<1.0.0",
    "highest": ">6.0.0"
  },
  {
    "interval": "=5.3.3",
    "lowest": "<0.8.0",
    "highest": ">5.2.0-dev.20230601"
  },
  {
    "interval": "=5.4.1",
    "lowest": "<0.1.0",
    "highest": ">5.4.1"
  },
  {
    "interval": "=5.5.0",
    "lowest": "<0.2.0",
    "highest": ">9.4.0"
  },
  {
    "interval": "=5.7.2",
    "lowest": "<1.0.0",
    "highest": ">7.5.4"
  },
  {
    "interval": "=5.7.4",
    "lowest": "<0.0.1",
    "highest": ">8.11.2"
  },
  {
    "interval": "=5.8.0",
    "lowest": "<1.0.10",
    "highest": ">5.8.0"
  },
  {
    "interval": "=5.8.38",
    "lowest": "<0.0.1",
    "highest": ">6.23.0"
  },
  {
    "interval": "=5.8.38",
    "lowest": "<4.0.1",
    "highest": ">7.0.0-bridge.0"
  },
  {
    "interval": "=5.8.38",
    "lowest": "<5.6.23",
    "highest": ">7.0.0-beta.47"
  },
  {
    "interval": "=6.0.0",
    "lowest": "<1.0.0",
    "highest": ">6.0.0"
  },
  {
    "interval": "=6.0.0",
    "lowest": "<1.0.0",
    "highest": ">7.2.0"
  },
  {
    "interval": "=6.0.0",
    "lowest": "<1.0.1",
    "highest": ">10.0.3"
  },
  {
    "interval": "=6.0.1",
    "lowest": "<0.1.0",
    "highest": ">6.0.1"
  },
  {
    "interval": "=6.0.1",
    "lowest": "<0.1.0",
    "highest": ">7.1.0"
  },
  {
    "interval": "=6.0.1",
    "lowest": "<1.0.0",
    "highest": ">7.0.2"
  },
  {
    "interval": "=6.0.1",
    "lowest": "<1.0.0",
    "highest": ">8.0.0"
  },
  {
    "interval": "=6.0.1",
    "lowest": "<1.0.0",
    "highest": ">8.0.1"
  },
  {
    "interval": "=6.0.1",
    "lowest": "<1.0.0-alpha.0",
    "highest": ">6.0.1"
  },
  {
    "interval": "=6.0.2",
    "lowest": "<1.0.0",
    "highest": ">6.0.2"
  },
  {
    "interval": "=6.0.3",
    "lowest": "<0.1.0",
    "highest": ">6.0.3"
  },
  {
    "interval": "=6.0.4",
    "lowest": "<0.0.0",
    "highest": ">6.0.4"
  },
  {
    "interval": "=6.1.1",
    "lowest": "<1.0.0-alpha.1",
    "highest": ">6.1.1"
  },
  {
    "interval": "=6.11.2",
    "lowest": "<0.0.1",
    "highest": ">6.11.2"
  },
  {
    "interval": "=6.12.6",
    "lowest": "<0.0.4",
    "highest": ">8.12.0"
  },
  {
    "interval": "=6.16.0",
    "lowest": "<0.0.1-alpha.0",
    "highest": ">6.0.0-alpha.138"
  },
  {
    "interval": "=6.16.0",
    "lowest": "<0.0.1-alpha.0",
    "highest": ">6.0.0-alpha.144"
  },
  {
    "interval": "=6.16.0",
    "lowest": "<3.5.0",
    "highest": ">6.0.0-alpha.144"
  },
  {
    "interval": "=6.16.0",
    "lowest": "<5.9.0",
    "highest": ">7.0.0-alpha.0"
  },
  {
    "interval": "=6.16.0",
    "lowest": "<5.9.2-alpha.6",
    "highest": ">7.0.0-alpha.0"
  },
  {
    "interval": "=6.2.1",
    "lowest": "<0.1.0",
    "highest": ">6.2.1"
  },
  {
    "interval": "=6.3.0",
    "lowest": "<1.0.0",
    "highest": ">8.0.0"
  },
  {
    "interval": "=6.3.1",
    "lowest": "<1.0.0",
    "highest": ">7.5.4"
  },
  {
    "interval": "=6.4.1",
    "lowest": "<0.1.0",
    "highest": ">13.23.0"
  },
  {
    "interval": "=6.9.11",
    "lowest": "<0.0.13-alpha",
    "highest": ">6.9.10"
  },
  {
    "interval": "=7.0.0",
    "lowest": "<0.1.0",
    "highest": ">7.0.0"
  },
  {
    "interval": "=7.0.0",
    "lowest": "<0.1.0",
    "highest": ">9.0.0"
  },
  {
    "interval": "=7.0.0",
    "lowest": "<1.0.0",
    "highest": ">8.0.0"
  },
  {
    "interval": "=7.0.1",
    "lowest": "<0.1.0",
    "highest": ">7.0.1"
  },
  {
    "interval": "=7.0.1",
    "lowest": "<2.0.0",
    "highest": ">8.0.0"
  },
  {
    "interval": "=7.0.15",
    "lowest": "<4.0.0",
    "highest": ">7.0.15"
  },
  {
    "interval": "=7.0.3",
    "lowest": "<0.1.0",
    "highest": ">7.0.3"
  },
  {
    "interval": "=7.0.4",
    "lowest": "<1.0.0",
    "highest": ">7.0.4"
  },
  {
    "interval": "=7.1.0",
    "lowest": "<0.1.0",
    "highest": ">7.1.0"
  },
  {
    "interval": "=7.10.4",
    "lowest": "<7.0.0-beta.36",
    "highest": ">7.10.4"
  },
  {
    "interval": "=7.10.4",
    "lowest": "<7.0.0-beta.4",
    "highest": ">7.10.4"
  },
  {
    "interval": "=7.10.4",
    "lowest": "<7.0.0-beta.41",
    "highest": ">7.10.4"
  },
  {
    "interval": "=7.12.13",
    "lowest": "<7.0.0-beta.4",
    "highest": ">7.12.13"
  },
  {
    "interval": "=7.14.5",
    "lowest": "<7.12.0",
    "highest": ">7.14.5"
  },
  {
    "interval": "=7.14.5",
    "lowest": "<7.14.0",
    "highest": ">7.14.5"
  },
  {
    "interval": "=7.14.5",
    "lowest": "<7.7.0",
    "highest": ">7.14.5"
  },
  {
    "interval": "=7.18.6",
    "lowest": "<7.17.0",
    "highest": ">7.21.4-esm.4"
  },
  {
    "interval": "=7.2.0",
    "lowest": "<0.2.0",
    "highest": ">9.4.0"
  },
  {
    "interval": "=7.2.2",
    "lowest": "<3.7.0",
    "highest": ">7.2.2"
  },
  {
    "interval": "=7.2.3",
    "lowest": "<1.1.0",
    "highest": ">10.3.10"
  },
  {
    "interval": "=7.20.4",
    "lowest": "<7.0.0",
    "highest": ">7.20.4"
  },
  {
    "interval": "=7.20.5",
    "lowest": "<7.0.0",
    "highest": ">7.20.5"
  },
  {
    "interval": "=7.21.0-placeholder-for-preset-env.2",
    "lowest": "<7.10.0",
    "highest": ">7.21.11"
  },
  {
    "interval": "=7.22.15",
    "lowest": "<7.0.0-beta.4",
    "highest": ">8.0.0-alpha.4"
  },
  {
    "interval": "=7.22.15",
    "lowest": "<7.7.0",
    "highest": ">8.0.0-alpha.4"
  },
  {
    "interval": "=7.22.20",
    "lowest": "<7.0.0-beta.4",
    "highest": ">8.0.0-alpha.4"
  },
  {
    "interval": "=7.22.20",
    "lowest": "<7.16.5",
    "highest": ">8.0.0-alpha.4"
  },
  {
    "interval": "=7.22.20",
    "lowest": "<7.9.0",
    "highest": ">8.0.0-alpha.4"
  },
  {
    "interval": "=7.22.5",
    "lowest": "<7.0.0-beta.4",
    "highest": ">8.0.0-alpha.4"
  },
  {
    "interval": "=7.22.5",
    "lowest": "<7.0.0-beta.41",
    "highest": ">8.0.0-alpha.4"
  },
  {
    "interval": "=7.22.5",
    "lowest": "<7.11.0",
    "highest": ">8.0.0-alpha.4"
  },
  {
    "interval": "=7.22.5",
    "lowest": "<7.3.0",
    "highest": ">8.0.0-alpha.4"
  },
  {
    "interval": "=7.22.6",
    "lowest": "<7.0.0-beta.41",
    "highest": ">8.0.0-alpha.4"
  },
  {
    "interval": "=7.23.0",
    "lowest": "<7.0.0-beta.4",
    "highest": ">8.0.0-alpha.4"
  },
  {
    "interval": "=7.23.0",
    "lowest": "<7.0.0-beta.45",
    "highest": ">8.0.0-alpha.4"
  },
  {
    "interval": "=7.23.3",
    "lowest": "<7.0.0-beta.36",
    "highest": ">8.0.0-alpha.4"
  },
  {
    "interval": "=7.23.3",
    "lowest": "<7.0.0-beta.4",
    "highest": ">8.0.0-alpha.4"
  },
  {
    "interval": "=7.23.3",
    "lowest": "<7.10.0",
    "highest": ">8.0.0-alpha.4"
  },
  {
    "interval": "=7.23.3",
    "lowest": "<7.12.0",
    "highest": ">8.0.0-alpha.4"
  },
  {
    "interval": "=7.23.3",
    "lowest": "<7.13.12",
    "highest": ">8.0.0-alpha.4"
  },
  {
    "interval": "=7.23.3",
    "lowest": "<7.16.0",
    "highest": ">8.0.0-alpha.4"
  },
  {
    "interval": "=7.23.3",
    "lowest": "<7.22.0",
    "highest": ">8.0.0-alpha.4"
  },
  {
    "interval": "=7.23.3",
    "lowest": "<7.23.3",
    "highest": ">7.23.3"
  },
  {
    "interval": "=7.23.4",
    "lowest": "<7.0.0-beta.4",
    "highest": ">8.0.0-alpha.4"
  },
  {
    "interval": "=7.23.4",
    "lowest": "<7.0.0-beta.40",
    "highest": ">8.0.0-alpha.4"
  },
  {
    "interval": "=7.23.4",
    "lowest": "<7.18.10",
    "highest": ">8.0.0-alpha.4"
  },
  {
    "interval": "=7.23.4",
    "lowest": "<7.22.0",
    "highest": ">8.0.0-alpha.4"
  },
  {
    "interval": "=7.23.5",
    "lowest": "<7.0.0-beta.4",
    "highest": ">8.0.0-alpha.4"
  },
  {
    "interval": "=7.23.5",
    "lowest": "<7.12.0",
    "highest": ">8.0.0-alpha.4"
  },
  {
    "interval": "=7.23.5",
    "lowest": "<7.8.0",
    "highest": ">8.0.0-alpha.4"
  },
  {
    "interval": "=7.23.6",
    "lowest": "<6.0.0-bridge.1",
    "highest": ">8.0.0-alpha.4"
  },
  {
    "interval": "=7.23.6",
    "lowest": "<7.0.0-beta.4",
    "highest": ">8.0.0-alpha.4"
  },
  {
    "interval": "=7.23.6",
    "lowest": "<7.0.0-beta.48",
    "highest": ">8.0.0-alpha.4"
  },
  {
    "interval": "=7.23.6",
    "lowest": "<7.2.0",
    "highest": ">8.0.0-alpha.4"
  },
  {
    "interval": "=7.23.6",
    "lowest": "<7.8.0",
    "highest": ">8.0.0-alpha.4"
  },
  {
    "interval": "=7.4.4",
    "lowest": "<7.0.0",
    "highest": ">7.4.4"
  },
  {
    "interval": "=7.5.4",
    "lowest": "<1.0.0",
    "highest": ">7.5.4"
  },
  {
    "interval": "=7.5.6",
    "lowest": "<4.3.13-alpha",
    "highest": ">7.5.6"
  },
  {
    "interval": "=7.6.8",
    "lowest": "<7.0.0",
    "highest": ">7.6.7"
  },
  {
    "interval": "=7.8.3",
    "lowest": "<7.0.0-beta.33",
    "highest": ">7.8.3"
  },
  {
    "interval": "=7.8.3",
    "lowest": "<7.0.0-beta.4",
    "highest": ">7.8.3"
  },
  {
    "interval": "=7.8.3",
    "lowest": "<7.0.0-beta.48",
    "highest": ">7.8.3"
  },
  {
    "interval": "=7.8.4",
    "lowest": "<7.0.0-beta.4",
    "highest": ">7.8.4"
  },
  {
    "interval": "=8.0.0",
    "lowest": "<0.0.1",
    "highest": ">9.0.1"
  },
  {
    "interval": "=8.0.0",
    "lowest": "<1.0.0",
    "highest": ">10.3.0"
  },
  {
    "interval": "=8.0.1",
    "lowest": "<1.0.0",
    "highest": ">8.0.1"
  },
  {
    "interval": "=8.0.2",
    "lowest": "<8.0.2",
    "highest": ">8.0.2"
  },
  {
    "interval": "=8.1.0",
    "lowest": "<0.1.0",
    "highest": ">9.0.0"
  },
  {
    "interval": "=8.1.1",
    "lowest": "<0.2.0",
    "highest": ">9.4.0"
  },
  {
    "interval": "=8.1.5",
    "lowest": "<6.0.0",
    "highest": ">8.1.5"
  },
  {
    "interval": "=8.10.130",
    "lowest": "<0.0.1",
    "highest": ">8.10.130"
  },
  {
    "interval": "=8.11.2",
    "lowest": "<0.0.1",
    "highest": ">8.11.2"
  },
  {
    "interval": "=8.3.1",
    "lowest": "<6.0.0",
    "highest": ">8.3.1"
  },
  {
    "interval": "=8.3.2",
    "lowest": "<0.0.1",
    "highest": ">9.0.1"
  },
  {
    "interval": "=8.56.0",
    "lowest": "<0.0.4",
    "highest": ">8.55.0"
  },
  {
    "interval": "=8.56.0",
    "lowest": "<8.33.0",
    "highest": ">8.55.0"
  },
  {
    "interval": "=9.0.3",
    "lowest": "<0.0.1",
    "highest": ">9.0.3"
  },
  {
    "interval": "=9.1.2",
    "lowest": "<6.0.0",
    "highest": ">11.2.2"
  },
  {
    "interval": "=9.1.4",
    "lowest": "<7.4.0",
    "highest": ">10.0.1"
  },
  {
    "interval": "=9.2.0",
    "lowest": "<1.0.0",
    "highest": ">9.2.0"
  },
  {
    "interval": "=9.2.2",
    "lowest": "<1.0.0",
    "highest": ">10.3.0"
  },
  {
    "interval": "=9.3.0",
    "lowest": "<6.2.0",
    "highest": ">11.0.4"
  },
  {
    "interval": "=9.6.1",
    "lowest": "<3.0.0",
    "highest": ">9.6.1"
  }
]
